{
  "cwd": "/home/dev/jsProjects/fw",
  "type": [
    "web"
  ],
  "name": "fw",
  "framework": "svelte",
  "template": "tabs",
  "cssPreProcessor": false,
  "bundler": "webpack",
  "webpack": {
    "developmentSourceMap": true,
    "productionSourceMap": true,
    "hashAssets": false,
    "preserveAssetsPaths": false,
    "inlineAssets": true
  },
  "theming": {
    "customColor": false,
    "color": "#007aff",
    "darkTheme": false,
    "iconFonts": true,
    "fillBars": false
  },
  "customBuild": false
}